fragment_program Ogre/Compositor/InvertFP hlsl
{
	source InvertFP.hlsl
	entry_point Invert_ps
	target ps_2_0
	
	default_params	
	{
		param_named invertFactor float 1
   	}
}

material Ogre/Compositor/Invert
{
	technique
	{

		pass
		{
			cull_hardware none
			cull_software none
			depth_func always_pass

			vertex_program_ref Ogre/Compositor/StdQuad_Tex2a_vp
			{
			}

			fragment_program_ref Ogre/Compositor/InvertFP
			{
			}

			texture_unit RT
			{
                tex_coord_set 0
				tex_address_mode clamp
				filtering none
			}

		}
	}
}
